<?xml version='1.0' encoding='UTF-8' ?>
<svg xmlns='http://www.w3.org/2000/svg' xmlns:xlink='http://www.w3.org/1999/xlink' class='svglite' width='864.00pt' height='576.00pt' viewBox='0 0 864.00 576.00'>
<defs>
  <style type='text/css'><![CDATA[
    .svglite line, .svglite polyline, .svglite polygon, .svglite path, .svglite rect, .svglite circle {
      fill: none;
      stroke: #000000;
      stroke-linecap: round;
      stroke-linejoin: round;
      stroke-miterlimit: 10.00;
    }
  ]]></style>
</defs>
<rect width='100%' height='100%' style='stroke: none; fill: #FFFFFF;'/>
<defs>
  <clipPath id='cpMC4wMHw4NjQuMDB8MC4wMHw1NzYuMDA='>
    <rect x='0.00' y='0.00' width='864.00' height='576.00' />
  </clipPath>
</defs>
<g clip-path='url(#cpMC4wMHw4NjQuMDB8MC4wMHw1NzYuMDA=)'>
</g>
<defs>
  <clipPath id='cpNDAuMTV8NDQ2LjYwfDEwNS4yN3w1MzkuMjM='>
    <rect x='40.15' y='105.27' width='406.45' height='433.96' />
  </clipPath>
</defs>
<g clip-path='url(#cpNDAuMTV8NDQ2LjYwfDEwNS4yN3w1MzkuMjM=)'>
<polyline points='40.15,470.19 446.60,470.19 ' style='stroke-width: 0.53; stroke: #EBEBEB; stroke-dasharray: 4.00,4.00; stroke-linecap: butt;' />
<polyline points='40.15,371.56 446.60,371.56 ' style='stroke-width: 0.53; stroke: #EBEBEB; stroke-dasharray: 4.00,4.00; stroke-linecap: butt;' />
<polyline points='40.15,272.94 446.60,272.94 ' style='stroke-width: 0.53; stroke: #EBEBEB; stroke-dasharray: 4.00,4.00; stroke-linecap: butt;' />
<polyline points='40.15,174.31 446.60,174.31 ' style='stroke-width: 0.53; stroke: #EBEBEB; stroke-dasharray: 4.00,4.00; stroke-linecap: butt;' />
<polyline points='95.58,539.23 95.58,105.27 ' style='stroke-width: 0.53; stroke: #EBEBEB; stroke-dasharray: 4.00,4.00; stroke-linecap: butt;' />
<polyline points='169.47,539.23 169.47,105.27 ' style='stroke-width: 0.53; stroke: #EBEBEB; stroke-dasharray: 4.00,4.00; stroke-linecap: butt;' />
<polyline points='243.37,539.23 243.37,105.27 ' style='stroke-width: 0.53; stroke: #EBEBEB; stroke-dasharray: 4.00,4.00; stroke-linecap: butt;' />
<polyline points='317.27,539.23 317.27,105.27 ' style='stroke-width: 0.53; stroke: #EBEBEB; stroke-dasharray: 4.00,4.00; stroke-linecap: butt;' />
<polyline points='391.17,539.23 391.17,105.27 ' style='stroke-width: 0.53; stroke: #EBEBEB; stroke-dasharray: 4.00,4.00; stroke-linecap: butt;' />
<polyline points='40.15,519.50 446.60,519.50 ' style='stroke-width: 1.07; stroke: #EBEBEB; stroke-dasharray: 5.69,5.69; stroke-linecap: butt;' />
<polyline points='40.15,420.87 446.60,420.87 ' style='stroke-width: 1.07; stroke: #EBEBEB; stroke-dasharray: 5.69,5.69; stroke-linecap: butt;' />
<polyline points='40.15,322.25 446.60,322.25 ' style='stroke-width: 1.07; stroke: #EBEBEB; stroke-dasharray: 5.69,5.69; stroke-linecap: butt;' />
<polyline points='40.15,223.62 446.60,223.62 ' style='stroke-width: 1.07; stroke: #EBEBEB; stroke-dasharray: 5.69,5.69; stroke-linecap: butt;' />
<polyline points='40.15,125.00 446.60,125.00 ' style='stroke-width: 1.07; stroke: #EBEBEB; stroke-dasharray: 5.69,5.69; stroke-linecap: butt;' />
<polyline points='58.63,539.23 58.63,105.27 ' style='stroke-width: 1.07; stroke: #EBEBEB; stroke-dasharray: 5.69,5.69; stroke-linecap: butt;' />
<polyline points='132.52,539.23 132.52,105.27 ' style='stroke-width: 1.07; stroke: #EBEBEB; stroke-dasharray: 5.69,5.69; stroke-linecap: butt;' />
<polyline points='206.42,539.23 206.42,105.27 ' style='stroke-width: 1.07; stroke: #EBEBEB; stroke-dasharray: 5.69,5.69; stroke-linecap: butt;' />
<polyline points='280.32,539.23 280.32,105.27 ' style='stroke-width: 1.07; stroke: #EBEBEB; stroke-dasharray: 5.69,5.69; stroke-linecap: butt;' />
<polyline points='354.22,539.23 354.22,105.27 ' style='stroke-width: 1.07; stroke: #EBEBEB; stroke-dasharray: 5.69,5.69; stroke-linecap: butt;' />
<polyline points='428.12,539.23 428.12,105.27 ' style='stroke-width: 1.07; stroke: #EBEBEB; stroke-dasharray: 5.69,5.69; stroke-linecap: butt;' />
<polygon points='58.63,125.00 77.10,125.00 95.58,125.00 114.05,125.00 132.52,125.00 151.00,125.00 169.47,125.00 187.95,125.00 206.42,125.00 224.90,125.00 243.37,125.00 261.85,125.00 280.32,125.00 354.22,125.00 428.12,125.00 428.12,157.20 354.22,160.18 280.32,143.11 261.85,142.97 243.37,160.37 224.90,147.50 206.42,158.31 187.95,155.69 169.47,156.62 151.00,152.89 132.52,151.36 114.05,155.76 95.58,167.64 77.10,150.58 58.63,157.75 ' style='stroke-width: 0.00; stroke: none; fill: #F8766D;' />
<polyline points='58.63,125.00 77.10,125.00 95.58,125.00 114.05,125.00 132.52,125.00 151.00,125.00 169.47,125.00 187.95,125.00 206.42,125.00 224.90,125.00 243.37,125.00 261.85,125.00 280.32,125.00 354.22,125.00 428.12,125.00 ' style='stroke-width: 1.07; stroke: none;' />
<polygon points='58.63,157.75 77.10,150.58 95.58,167.64 114.05,155.76 132.52,151.36 151.00,152.89 169.47,156.62 187.95,155.69 206.42,158.31 224.90,147.50 243.37,160.37 261.85,142.97 280.32,143.11 354.22,160.18 428.12,157.20 428.12,247.35 354.22,251.56 280.32,223.15 261.85,228.94 243.37,238.71 224.90,234.99 206.42,241.93 187.95,242.75 169.47,251.39 151.00,240.07 132.52,247.59 114.05,259.74 95.58,260.72 77.10,253.08 58.63,261.98 ' style='stroke-width: 0.00; stroke: none; fill: #C49A00;' />
<polyline points='58.63,157.75 77.10,150.58 95.58,167.64 114.05,155.76 132.52,151.36 151.00,152.89 169.47,156.62 187.95,155.69 206.42,158.31 224.90,147.50 243.37,160.37 261.85,142.97 280.32,143.11 354.22,160.18 428.12,157.20 ' style='stroke-width: 1.07; stroke: none;' />
<polygon points='58.63,261.98 77.10,253.08 95.58,260.72 114.05,259.74 132.52,247.59 151.00,240.07 169.47,251.39 187.95,242.75 206.42,241.93 224.90,234.99 243.37,238.71 261.85,228.94 280.32,223.15 354.22,251.56 428.12,247.35 428.12,298.60 354.22,310.63 280.32,288.60 261.85,294.85 243.37,298.32 224.90,305.46 206.42,311.96 187.95,305.90 169.47,322.62 151.00,301.90 132.52,323.76 114.05,322.05 95.58,326.03 77.10,331.98 58.63,348.44 ' style='stroke-width: 0.00; stroke: none; fill: #53B400;' />
<polyline points='58.63,261.98 77.10,253.08 95.58,260.72 114.05,259.74 132.52,247.59 151.00,240.07 169.47,251.39 187.95,242.75 206.42,241.93 224.90,234.99 243.37,238.71 261.85,228.94 280.32,223.15 354.22,251.56 428.12,247.35 ' style='stroke-width: 1.07; stroke: none;' />
<polygon points='58.63,348.44 77.10,331.98 95.58,326.03 114.05,322.05 132.52,323.76 151.00,301.90 169.47,322.62 187.95,305.90 206.42,311.96 224.90,305.46 243.37,298.32 261.85,294.85 280.32,288.60 354.22,310.63 428.12,298.60 428.12,374.23 354.22,372.54 280.32,368.70 261.85,381.88 243.37,382.44 224.90,393.48 206.42,393.01 187.95,391.75 169.47,402.18 151.00,391.88 132.52,402.11 114.05,402.09 95.58,411.57 77.10,408.67 58.63,417.10 ' style='stroke-width: 0.00; stroke: none; fill: #00C094;' />
<polyline points='58.63,348.44 77.10,331.98 95.58,326.03 114.05,322.05 132.52,323.76 151.00,301.90 169.47,322.62 187.95,305.90 206.42,311.96 224.90,305.46 243.37,298.32 261.85,294.85 280.32,288.60 354.22,310.63 428.12,298.60 ' style='stroke-width: 1.07; stroke: none;' />
<polygon points='58.63,417.10 77.10,408.67 95.58,411.57 114.05,402.09 132.52,402.11 151.00,391.88 169.47,402.18 187.95,391.75 206.42,393.01 224.90,393.48 243.37,382.44 261.85,381.88 280.32,368.70 354.22,372.54 428.12,374.23 428.12,474.59 354.22,456.78 280.32,452.87 261.85,457.85 243.37,465.32 224.90,473.51 206.42,480.12 187.95,470.85 169.47,475.94 151.00,472.53 132.52,474.56 114.05,479.63 95.58,481.85 77.10,477.88 58.63,483.75 ' style='stroke-width: 0.00; stroke: none; fill: #00B6EB;' />
<polyline points='58.63,417.10 77.10,408.67 95.58,411.57 114.05,402.09 132.52,402.11 151.00,391.88 169.47,402.18 187.95,391.75 206.42,393.01 224.90,393.48 243.37,382.44 261.85,381.88 280.32,368.70 354.22,372.54 428.12,374.23 ' style='stroke-width: 1.07; stroke: none;' />
<polygon points='58.63,483.75 77.10,477.88 95.58,481.85 114.05,479.63 132.52,474.56 151.00,472.53 169.47,475.94 187.95,470.85 206.42,480.12 224.90,473.51 243.37,465.32 261.85,457.85 280.32,452.87 354.22,456.78 428.12,474.59 428.12,500.68 354.22,492.53 280.32,497.37 261.85,493.68 243.37,501.38 224.90,510.87 206.42,509.19 187.95,499.98 169.47,505.25 151.00,504.55 132.52,500.03 114.05,502.11 95.58,509.14 77.10,507.36 58.63,509.63 ' style='stroke-width: 0.00; stroke: none; fill: #A58AFF;' />
<polyline points='58.63,483.75 77.10,477.88 95.58,481.85 114.05,479.63 132.52,474.56 151.00,472.53 169.47,475.94 187.95,470.85 206.42,480.12 224.90,473.51 243.37,465.32 261.85,457.85 280.32,452.87 354.22,456.78 428.12,474.59 ' style='stroke-width: 1.07; stroke: none;' />
<polygon points='58.63,509.63 77.10,507.36 95.58,509.14 114.05,502.11 132.52,500.03 151.00,504.55 169.47,505.25 187.95,499.98 206.42,509.19 224.90,510.87 243.37,501.38 261.85,493.68 280.32,497.37 354.22,492.53 428.12,500.68 428.12,519.50 354.22,519.50 280.32,519.50 261.85,519.50 243.37,519.50 224.90,519.50 206.42,519.50 187.95,519.50 169.47,519.50 151.00,519.50 132.52,519.50 114.05,519.50 95.58,519.50 77.10,519.50 58.63,519.50 ' style='stroke-width: 0.00; stroke: none; fill: #FB61D7;' />
<polyline points='58.63,509.63 77.10,507.36 95.58,509.14 114.05,502.11 132.52,500.03 151.00,504.55 169.47,505.25 187.95,499.98 206.42,509.19 224.90,510.87 243.37,501.38 261.85,493.68 280.32,497.37 354.22,492.53 428.12,500.68 ' style='stroke-width: 1.07; stroke: none;' />
</g>
<g clip-path='url(#cpMC4wMHw4NjQuMDB8MC4wMHw1NzYuMDA=)'>
</g>
<defs>
  <clipPath id='cpNDUyLjA4fDg1OC41MnwxMDUuMjd8NTM5LjIz'>
    <rect x='452.08' y='105.27' width='406.45' height='433.96' />
  </clipPath>
</defs>
<g clip-path='url(#cpNDUyLjA4fDg1OC41MnwxMDUuMjd8NTM5LjIz)'>
<polyline points='452.08,470.19 858.52,470.19 ' style='stroke-width: 0.53; stroke: #EBEBEB; stroke-dasharray: 4.00,4.00; stroke-linecap: butt;' />
<polyline points='452.08,371.56 858.52,371.56 ' style='stroke-width: 0.53; stroke: #EBEBEB; stroke-dasharray: 4.00,4.00; stroke-linecap: butt;' />
<polyline points='452.08,272.94 858.52,272.94 ' style='stroke-width: 0.53; stroke: #EBEBEB; stroke-dasharray: 4.00,4.00; stroke-linecap: butt;' />
<polyline points='452.08,174.31 858.52,174.31 ' style='stroke-width: 0.53; stroke: #EBEBEB; stroke-dasharray: 4.00,4.00; stroke-linecap: butt;' />
<polyline points='507.50,539.23 507.50,105.27 ' style='stroke-width: 0.53; stroke: #EBEBEB; stroke-dasharray: 4.00,4.00; stroke-linecap: butt;' />
<polyline points='581.40,539.23 581.40,105.27 ' style='stroke-width: 0.53; stroke: #EBEBEB; stroke-dasharray: 4.00,4.00; stroke-linecap: butt;' />
<polyline points='655.30,539.23 655.30,105.27 ' style='stroke-width: 0.53; stroke: #EBEBEB; stroke-dasharray: 4.00,4.00; stroke-linecap: butt;' />
<polyline points='729.20,539.23 729.20,105.27 ' style='stroke-width: 0.53; stroke: #EBEBEB; stroke-dasharray: 4.00,4.00; stroke-linecap: butt;' />
<polyline points='803.10,539.23 803.10,105.27 ' style='stroke-width: 0.53; stroke: #EBEBEB; stroke-dasharray: 4.00,4.00; stroke-linecap: butt;' />
<polyline points='452.08,519.50 858.52,519.50 ' style='stroke-width: 1.07; stroke: #EBEBEB; stroke-dasharray: 5.69,5.69; stroke-linecap: butt;' />
<polyline points='452.08,420.87 858.52,420.87 ' style='stroke-width: 1.07; stroke: #EBEBEB; stroke-dasharray: 5.69,5.69; stroke-linecap: butt;' />
<polyline points='452.08,322.25 858.52,322.25 ' style='stroke-width: 1.07; stroke: #EBEBEB; stroke-dasharray: 5.69,5.69; stroke-linecap: butt;' />
<polyline points='452.08,223.62 858.52,223.62 ' style='stroke-width: 1.07; stroke: #EBEBEB; stroke-dasharray: 5.69,5.69; stroke-linecap: butt;' />
<polyline points='452.08,125.00 858.52,125.00 ' style='stroke-width: 1.07; stroke: #EBEBEB; stroke-dasharray: 5.69,5.69; stroke-linecap: butt;' />
<polyline points='470.55,539.23 470.55,105.27 ' style='stroke-width: 1.07; stroke: #EBEBEB; stroke-dasharray: 5.69,5.69; stroke-linecap: butt;' />
<polyline points='544.45,539.23 544.45,105.27 ' style='stroke-width: 1.07; stroke: #EBEBEB; stroke-dasharray: 5.69,5.69; stroke-linecap: butt;' />
<polyline points='618.35,539.23 618.35,105.27 ' style='stroke-width: 1.07; stroke: #EBEBEB; stroke-dasharray: 5.69,5.69; stroke-linecap: butt;' />
<polyline points='692.25,539.23 692.25,105.27 ' style='stroke-width: 1.07; stroke: #EBEBEB; stroke-dasharray: 5.69,5.69; stroke-linecap: butt;' />
<polyline points='766.15,539.23 766.15,105.27 ' style='stroke-width: 1.07; stroke: #EBEBEB; stroke-dasharray: 5.69,5.69; stroke-linecap: butt;' />
<polyline points='840.05,539.23 840.05,105.27 ' style='stroke-width: 1.07; stroke: #EBEBEB; stroke-dasharray: 5.69,5.69; stroke-linecap: butt;' />
<polygon points='470.55,125.00 489.02,125.00 507.50,125.00 525.97,125.00 544.45,125.00 562.92,125.00 581.40,125.00 599.87,125.00 618.35,125.00 636.82,125.00 655.30,125.00 673.77,125.00 692.25,125.00 766.15,125.00 840.05,125.00 840.05,147.79 766.15,148.68 692.25,143.18 673.77,141.71 655.30,138.58 636.82,138.17 618.35,138.50 599.87,144.71 581.40,145.65 562.92,146.88 544.45,147.85 525.97,146.50 507.50,147.76 489.02,146.33 470.55,148.62 ' style='stroke-width: 0.00; stroke: none; fill: #F8766D;' />
<polyline points='470.55,125.00 489.02,125.00 507.50,125.00 525.97,125.00 544.45,125.00 562.92,125.00 581.40,125.00 599.87,125.00 618.35,125.00 636.82,125.00 655.30,125.00 673.77,125.00 692.25,125.00 766.15,125.00 840.05,125.00 ' style='stroke-width: 1.07; stroke: none;' />
<polygon points='470.55,148.62 489.02,146.33 507.50,147.76 525.97,146.50 544.45,147.85 562.92,146.88 581.40,145.65 599.87,144.71 618.35,138.50 636.82,138.17 655.30,138.58 673.77,141.71 692.25,143.18 766.15,148.68 840.05,147.79 840.05,195.90 766.15,213.50 692.25,199.48 673.77,200.54 655.30,199.12 636.82,192.16 618.35,192.15 599.87,189.78 581.40,198.43 562.92,205.33 544.45,203.82 525.97,205.58 507.50,208.83 489.02,204.66 470.55,206.74 ' style='stroke-width: 0.00; stroke: none; fill: #C49A00;' />
<polyline points='470.55,148.62 489.02,146.33 507.50,147.76 525.97,146.50 544.45,147.85 562.92,146.88 581.40,145.65 599.87,144.71 618.35,138.50 636.82,138.17 655.30,138.58 673.77,141.71 692.25,143.18 766.15,148.68 840.05,147.79 ' style='stroke-width: 1.07; stroke: none;' />
<polygon points='470.55,206.74 489.02,204.66 507.50,208.83 525.97,205.58 544.45,203.82 562.92,205.33 581.40,198.43 599.87,189.78 618.35,192.15 636.82,192.16 655.30,199.12 673.77,200.54 692.25,199.48 766.15,213.50 840.05,195.90 840.05,260.00 766.15,273.94 692.25,264.68 673.77,262.61 655.30,258.06 636.82,263.37 618.35,258.77 599.87,256.28 581.40,266.22 562.92,267.84 544.45,272.53 525.97,279.43 507.50,279.99 489.02,274.54 470.55,278.67 ' style='stroke-width: 0.00; stroke: none; fill: #53B400;' />
<polyline points='470.55,206.74 489.02,204.66 507.50,208.83 525.97,205.58 544.45,203.82 562.92,205.33 581.40,198.43 599.87,189.78 618.35,192.15 636.82,192.16 655.30,199.12 673.77,200.54 692.25,199.48 766.15,213.50 840.05,195.90 ' style='stroke-width: 1.07; stroke: none;' />
<polygon points='470.55,278.67 489.02,274.54 507.50,279.99 525.97,279.43 544.45,272.53 562.92,267.84 581.40,266.22 599.87,256.28 618.35,258.77 636.82,263.37 655.30,258.06 673.77,262.61 692.25,264.68 766.15,273.94 840.05,260.00 840.05,336.76 766.15,341.30 692.25,347.68 673.77,355.31 655.30,347.71 636.82,354.13 618.35,348.21 599.87,346.26 581.40,350.70 562.92,351.95 544.45,354.40 525.97,359.92 507.50,358.50 489.02,359.13 470.55,367.03 ' style='stroke-width: 0.00; stroke: none; fill: #00C094;' />
<polyline points='470.55,278.67 489.02,274.54 507.50,279.99 525.97,279.43 544.45,272.53 562.92,267.84 581.40,266.22 599.87,256.28 618.35,258.77 636.82,263.37 655.30,258.06 673.77,262.61 692.25,264.68 766.15,273.94 840.05,260.00 ' style='stroke-width: 1.07; stroke: none;' />
<polygon points='470.55,367.03 489.02,359.13 507.50,358.50 525.97,359.92 544.45,354.40 562.92,351.95 581.40,350.70 599.87,346.26 618.35,348.21 636.82,354.13 655.30,347.71 673.77,355.31 692.25,347.68 766.15,341.30 840.05,336.76 840.05,441.18 766.15,449.30 692.25,443.20 673.77,449.56 655.30,438.45 636.82,445.50 618.35,442.67 599.87,445.58 581.40,442.81 562.92,446.62 544.45,449.98 525.97,450.02 507.50,444.96 489.02,445.52 470.55,452.86 ' style='stroke-width: 0.00; stroke: none; fill: #00B6EB;' />
<polyline points='470.55,367.03 489.02,359.13 507.50,358.50 525.97,359.92 544.45,354.40 562.92,351.95 581.40,350.70 599.87,346.26 618.35,348.21 636.82,354.13 655.30,347.71 673.77,355.31 692.25,347.68 766.15,341.30 840.05,336.76 ' style='stroke-width: 1.07; stroke: none;' />
<polygon points='470.55,452.86 489.02,445.52 507.50,444.96 525.97,450.02 544.45,449.98 562.92,446.62 581.40,442.81 599.87,445.58 618.35,442.67 636.82,445.50 655.30,438.45 673.77,449.56 692.25,443.20 766.15,449.30 840.05,441.18 840.05,490.36 766.15,500.62 692.25,491.34 673.77,495.51 655.30,492.02 636.82,496.11 618.35,494.03 599.87,493.11 581.40,496.53 562.92,497.21 544.45,493.84 525.97,495.89 507.50,498.39 489.02,494.44 470.55,495.89 ' style='stroke-width: 0.00; stroke: none; fill: #A58AFF;' />
<polyline points='470.55,452.86 489.02,445.52 507.50,444.96 525.97,450.02 544.45,449.98 562.92,446.62 581.40,442.81 599.87,445.58 618.35,442.67 636.82,445.50 655.30,438.45 673.77,449.56 692.25,443.20 766.15,449.30 840.05,441.18 ' style='stroke-width: 1.07; stroke: none;' />
<polygon points='470.55,495.89 489.02,494.44 507.50,498.39 525.97,495.89 544.45,493.84 562.92,497.21 581.40,496.53 599.87,493.11 618.35,494.03 636.82,496.11 655.30,492.02 673.77,495.51 692.25,491.34 766.15,500.62 840.05,490.36 840.05,519.50 766.15,519.50 692.25,519.50 673.77,519.50 655.30,519.50 636.82,519.50 618.35,519.50 599.87,519.50 581.40,519.50 562.92,519.50 544.45,519.50 525.97,519.50 507.50,519.50 489.02,519.50 470.55,519.50 ' style='stroke-width: 0.00; stroke: none; fill: #FB61D7;' />
<polyline points='470.55,495.89 489.02,494.44 507.50,498.39 525.97,495.89 544.45,493.84 562.92,497.21 581.40,496.53 599.87,493.11 618.35,494.03 636.82,496.11 655.30,492.02 673.77,495.51 692.25,491.34 766.15,500.62 840.05,490.36 ' style='stroke-width: 1.07; stroke: none;' />
</g>
<g clip-path='url(#cpMC4wMHw4NjQuMDB8MC4wMHw1NzYuMDA=)'>
</g>
<defs>
  <clipPath id='cpNDAuMTV8NDQ2LjYwfDg1LjYwfDEwNS4yNw=='>
    <rect x='40.15' y='85.60' width='406.45' height='19.67' />
  </clipPath>
</defs>
<g clip-path='url(#cpNDAuMTV8NDQ2LjYwfDg1LjYwfDEwNS4yNw==)'>
<text x='243.37' y='99.64' text-anchor='middle' style='font-size: 12.00px; font-weight: bold; fill: #1A1A1A; font-family: Barlow Condensed;' textLength='33.63px' lengthAdjust='spacingAndGlyphs'>Hombre</text>
</g>
<g clip-path='url(#cpMC4wMHw4NjQuMDB8MC4wMHw1NzYuMDA=)'>
</g>
<defs>
  <clipPath id='cpNDUyLjA4fDg1OC41Mnw4NS42MHwxMDUuMjc='>
    <rect x='452.08' y='85.60' width='406.45' height='19.67' />
  </clipPath>
</defs>
<g clip-path='url(#cpNDUyLjA4fDg1OC41Mnw4NS42MHwxMDUuMjc=)'>
<text x='655.30' y='99.64' text-anchor='middle' style='font-size: 12.00px; font-weight: bold; fill: #1A1A1A; font-family: Barlow Condensed;' textLength='23.67px' lengthAdjust='spacingAndGlyphs'>Mujer</text>
</g>
<g clip-path='url(#cpMC4wMHw4NjQuMDB8MC4wMHw1NzYuMDA=)'>
<text x='58.63' y='552.56' text-anchor='middle' style='font-size: 12.00px; font-weight: bold; fill: #4D4D4D; font-family: Barlow Condensed;' textLength='26.36px' lengthAdjust='spacingAndGlyphs'>2017-1</text>
<text x='132.52' y='552.56' text-anchor='middle' style='font-size: 12.00px; font-weight: bold; fill: #4D4D4D; font-family: Barlow Condensed;' textLength='26.76px' lengthAdjust='spacingAndGlyphs'>2018-1</text>
<text x='206.42' y='552.56' text-anchor='middle' style='font-size: 12.00px; font-weight: bold; fill: #4D4D4D; font-family: Barlow Condensed;' textLength='26.70px' lengthAdjust='spacingAndGlyphs'>2019-1</text>
<text x='280.32' y='552.56' text-anchor='middle' style='font-size: 12.00px; font-weight: bold; fill: #4D4D4D; font-family: Barlow Condensed;' textLength='28.76px' lengthAdjust='spacingAndGlyphs'>2020-1</text>
<text x='354.22' y='552.56' text-anchor='middle' style='font-size: 12.00px; font-weight: bold; fill: #4D4D4D; font-family: Barlow Condensed;' textLength='26.73px' lengthAdjust='spacingAndGlyphs'>2021-1</text>
<text x='428.12' y='552.56' text-anchor='middle' style='font-size: 12.00px; font-weight: bold; fill: #4D4D4D; font-family: Barlow Condensed;' textLength='28.58px' lengthAdjust='spacingAndGlyphs'>2022-1</text>
<text x='470.55' y='552.56' text-anchor='middle' style='font-size: 12.00px; font-weight: bold; fill: #4D4D4D; font-family: Barlow Condensed;' textLength='26.36px' lengthAdjust='spacingAndGlyphs'>2017-1</text>
<text x='544.45' y='552.56' text-anchor='middle' style='font-size: 12.00px; font-weight: bold; fill: #4D4D4D; font-family: Barlow Condensed;' textLength='26.76px' lengthAdjust='spacingAndGlyphs'>2018-1</text>
<text x='618.35' y='552.56' text-anchor='middle' style='font-size: 12.00px; font-weight: bold; fill: #4D4D4D; font-family: Barlow Condensed;' textLength='26.70px' lengthAdjust='spacingAndGlyphs'>2019-1</text>
<text x='692.25' y='552.56' text-anchor='middle' style='font-size: 12.00px; font-weight: bold; fill: #4D4D4D; font-family: Barlow Condensed;' textLength='28.76px' lengthAdjust='spacingAndGlyphs'>2020-1</text>
<text x='766.15' y='552.56' text-anchor='middle' style='font-size: 12.00px; font-weight: bold; fill: #4D4D4D; font-family: Barlow Condensed;' textLength='26.73px' lengthAdjust='spacingAndGlyphs'>2021-1</text>
<text x='840.05' y='552.56' text-anchor='middle' style='font-size: 12.00px; font-weight: bold; fill: #4D4D4D; font-family: Barlow Condensed;' textLength='28.58px' lengthAdjust='spacingAndGlyphs'>2022-1</text>
<text x='35.22' y='523.70' text-anchor='end' style='font-size: 12.00px; font-weight: bold; fill: #4D4D4D; font-family: Barlow Condensed;' textLength='5.44px' lengthAdjust='spacingAndGlyphs'>0</text>
<text x='35.22' y='425.08' text-anchor='end' style='font-size: 12.00px; font-weight: bold; fill: #4D4D4D; font-family: Barlow Condensed;' textLength='10.53px' lengthAdjust='spacingAndGlyphs'>25</text>
<text x='35.22' y='326.45' text-anchor='end' style='font-size: 12.00px; font-weight: bold; fill: #4D4D4D; font-family: Barlow Condensed;' textLength='10.71px' lengthAdjust='spacingAndGlyphs'>50</text>
<text x='35.22' y='227.82' text-anchor='end' style='font-size: 12.00px; font-weight: bold; fill: #4D4D4D; font-family: Barlow Condensed;' textLength='10.15px' lengthAdjust='spacingAndGlyphs'>75</text>
<text x='35.22' y='129.20' text-anchor='end' style='font-size: 12.00px; font-weight: bold; fill: #4D4D4D; font-family: Barlow Condensed;' textLength='14.28px' lengthAdjust='spacingAndGlyphs'>100</text>
<rect x='261.99' y='35.31' width='15.86' height='15.86' style='stroke-width: 1.07; stroke: none; stroke-linecap: square; stroke-linejoin: miter; fill: #F8766D;' />
<rect x='261.99' y='52.59' width='15.86' height='15.86' style='stroke-width: 1.07; stroke: none; stroke-linecap: square; stroke-linejoin: miter; fill: #C49A00;' />
<rect x='357.11' y='35.31' width='15.86' height='15.86' style='stroke-width: 1.07; stroke: none; stroke-linecap: square; stroke-linejoin: miter; fill: #53B400;' />
<rect x='357.11' y='52.59' width='15.86' height='15.86' style='stroke-width: 1.07; stroke: none; stroke-linecap: square; stroke-linejoin: miter; fill: #00C094;' />
<rect x='452.54' y='35.31' width='15.86' height='15.86' style='stroke-width: 1.07; stroke: none; stroke-linecap: square; stroke-linejoin: miter; fill: #00B6EB;' />
<rect x='452.54' y='52.59' width='15.86' height='15.86' style='stroke-width: 1.07; stroke: none; stroke-linecap: square; stroke-linejoin: miter; fill: #A58AFF;' />
<rect x='548.15' y='35.31' width='15.86' height='15.86' style='stroke-width: 1.07; stroke: none; stroke-linecap: square; stroke-linejoin: miter; fill: #FB61D7;' />
<text x='285.54' y='47.45' style='font-size: 12.00px; fill: #595959; font-family: Barlow Condensed;' textLength='60.33px' lengthAdjust='spacingAndGlyphs'>De 12 a 19 años</text>
<text x='285.54' y='64.73' style='font-size: 12.00px; fill: #595959; font-family: Barlow Condensed;' textLength='63.89px' lengthAdjust='spacingAndGlyphs'>De 20 a 27 años</text>
<text x='380.65' y='47.45' style='font-size: 12.00px; fill: #595959; font-family: Barlow Condensed;' textLength='64.21px' lengthAdjust='spacingAndGlyphs'>De 28 a 35 años</text>
<text x='380.65' y='64.73' style='font-size: 12.00px; fill: #595959; font-family: Barlow Condensed;' textLength='64.21px' lengthAdjust='spacingAndGlyphs'>De 36 a 43 años</text>
<text x='476.09' y='47.45' style='font-size: 12.00px; fill: #595959; font-family: Barlow Condensed;' textLength='64.38px' lengthAdjust='spacingAndGlyphs'>De 44 a 54 años</text>
<text x='476.09' y='64.73' style='font-size: 12.00px; fill: #595959; font-family: Barlow Condensed;' textLength='64.24px' lengthAdjust='spacingAndGlyphs'>De 55 a 64 años</text>
<text x='571.69' y='47.45' style='font-size: 12.00px; fill: #595959; font-family: Barlow Condensed;' textLength='72.67px' lengthAdjust='spacingAndGlyphs'>De 65 en adelante</text>
<text x='449.34' y='19.48' text-anchor='middle' style='font-size: 20.00px; font-weight: bold; font-family: Barlow Condensed;' textLength='338.13px' lengthAdjust='spacingAndGlyphs'>Edades de quienes se dedican a temas textiles</text>
</g>
</svg>
